%YAML 1.1
%TAG !u! tag:unity3d.com,2011:
--- !u!74 &7400000
AnimationClip:
  m_ObjectHideFlags: 0
  m_CorrespondingSourceObject: {fileID: 0}
  m_PrefabInstance: {fileID: 0}
  m_PrefabAsset: {fileID: 0}
  m_Name: Grabber_Attack
  serializedVersion: 6
  m_Legacy: 0
  m_Compressed: 0
  m_UseHighQualityCurve: 1
  m_RotationCurves: []
  m_CompressedRotationCurves: []
  m_EulerCurves: []
  m_PositionCurves: []
  m_ScaleCurves: []
  m_FloatCurves: []
  m_PPtrCurves:
  - curve:
    - time: 0
      value: {fileID: 21300000, guid: 96f459bdbbb7c8d4587f8cc3f2f76501, type: 3}
    - time: 0.083333336
      value: {fileID: 21300000, guid: a37d1d09c150f1f4db1a466f4c00e35d, type: 3}
    - time: 0.16666667
      value: {fileID: 21300000, guid: b5779598ef79f444589dda54483e886f, type: 3}
    - time: 0.25
      value: {fileID: 21300000, guid: 941c043c8ec930b468723b938dcf5e9e, type: 3}
    - time: 0.33333334
      value: {fileID: 21300000, guid: 2e050bcce6f510148996eb5cac5d202b, type: 3}
    - time: 0.41666666
      value: {fileID: 21300000, guid: 10751a2f45e574a47974d1af80a4fb82, type: 3}
    - time: 0.5
      value: {fileID: 21300000, guid: 5e0fefb736e1595468f19e63756b16d2, type: 3}
    - time: 0.5833333
      value: {fileID: 21300000, guid: b48a29a985a418843829ccbf8bdc4d54, type: 3}
    - time: 0.6666667
      value: {fileID: 21300000, guid: 8c04b65f1fc76a14aaba3b7dfa153da0, type: 3}
    - time: 0.75
      value: {fileID: 21300000, guid: 196951345fb878a4599b4669ffc617d3, type: 3}
    attribute: m_Sprite
    path: 
    classID: 212
    script: {fileID: 0}
  m_SampleRate: 12
  m_WrapMode: 0
  m_Bounds:
    m_Center: {x: 0, y: 0, z: 0}
    m_Extent: {x: 0, y: 0, z: 0}
  m_ClipBindingConstant:
    genericBindings:
    - serializedVersion: 2
      path: 0
      attribute: 0
      script: {fileID: 0}
      typeID: 212
      customType: 23
      isPPtrCurve: 1
    pptrCurveMapping:
    - {fileID: 21300000, guid: 96f459bdbbb7c8d4587f8cc3f2f76501, type: 3}
    - {fileID: 21300000, guid: a37d1d09c150f1f4db1a466f4c00e35d, type: 3}
    - {fileID: 21300000, guid: b5779598ef79f444589dda54483e886f, type: 3}
    - {fileID: 21300000, guid: 941c043c8ec930b468723b938dcf5e9e, type: 3}
    - {fileID: 21300000, guid: 2e050bcce6f510148996eb5cac5d202b, type: 3}
    - {fileID: 21300000, guid: 10751a2f45e574a47974d1af80a4fb82, type: 3}
    - {fileID: 21300000, guid: 5e0fefb736e1595468f19e63756b16d2, type: 3}
    - {fileID: 21300000, guid: b48a29a985a418843829ccbf8bdc4d54, type: 3}
    - {fileID: 21300000, guid: 8c04b65f1fc76a14aaba3b7dfa153da0, type: 3}
    - {fileID: 21300000, guid: 196951345fb878a4599b4669ffc617d3, type: 3}
  m_AnimationClipSettings:
    serializedVersion: 2
    m_AdditiveReferencePoseClip: {fileID: 0}
    m_AdditiveReferencePoseTime: 0
    m_StartTime: 0
    m_StopTime: 0.8333333
    m_OrientationOffsetY: 0
    m_Level: 0
    m_CycleOffset: 0
    m_HasAdditiveReferencePose: 0
    m_LoopTime: 1
    m_LoopBlend: 0
    m_LoopBlendOrientation: 0
    m_LoopBlendPositionY: 0
    m_LoopBlendPositionXZ: 0
    m_KeepOriginalOrientation: 0
    m_KeepOriginalPositionY: 1
    m_KeepOriginalPositionXZ: 0
    m_HeightFromFeet: 0
    m_Mirror: 0
  m_EditorCurves: []
  m_EulerEditorCurves: []
  m_HasGenericRootTransform: 0
  m_HasMotionFloatCurves: 0
  m_Events: []
