%YAML 1.1
%TAG !u! tag:unity3d.com,2011:
--- !u!1045 &1
EditorBuildSettings:
  m_ObjectHideFlags: 0
  serializedVersion: 2
  m_Scenes:
  - enabled: 0
    path: Assets/Scenes/SampleScene.unity
    guid: 2cda990e2423bbf4892e6590ba056729
  - enabled: 1
    path: Assets/Title Screen.unity
    guid: 7e10ef2828127fe43a84a9dbbdce1b5b
  - enabled: 1
    path: Assets/Cutscene 1.unity
    guid: fa948a6ed293aa14db66c1e35a431970
  - enabled: 1
    path: Assets/Level 1.unity
    guid: 50a755f468fdfcd44bc115ee97e12ee9
  - enabled: 1
    path: Assets/Cutscene 2.unity
    guid: 31e64f644a819004c92ea3c9f08c807a
  - enabled: 1
    path: Assets/Level 2.unity
    guid: a029d32238b2e624ea7ff223038783be
  - enabled: 1
    path: Assets/Cutscene 3.unity
    guid: 08ec8da76e5835e4ab903ecd93d25ef5
  - enabled: 1
    path: Assets/Level 3.unity
    guid: d783ac8c42468d7499524b48c33b439c
  - enabled: 1
    path: Assets/Cutscene 4.unity
    guid: 596066b6a76210e42a1c42e8efe28a4d
  m_configObjects: {}
