%YAML 1.1
%TAG !u! tag:unity3d.com,2011:
--- !u!1 &2516516016907587661
GameObject:
  m_ObjectHideFlags: 0
  m_CorrespondingSourceObject: {fileID: 0}
  m_PrefabInstance: {fileID: 0}
  m_PrefabAsset: {fileID: 0}
  serializedVersion: 6
  m_Component:
  - component: {fileID: 3285380658780638237}
  - component: {fileID: 3488748353151409375}
  - component: {fileID: 3488748353151409374}
  m_Layer: 0
  m_Name: FlyMaker
  m_TagString: Untagged
  m_Icon: {fileID: 0}
  m_NavMeshLayer: 0
  m_StaticEditorFlags: 0
  m_IsActive: 1
--- !u!4 &3285380658780638237
Transform:
  m_ObjectHideFlags: 0
  m_CorrespondingSourceObject: {fileID: 0}
  m_PrefabInstance: {fileID: 0}
  m_PrefabAsset: {fileID: 0}
  m_GameObject: {fileID: 2516516016907587661}
  m_LocalRotation: {x: 0, y: 0, z: 0, w: 1}
  m_LocalPosition: {x: -9.78, y: 0.05, z: 0}
  m_LocalScale: {x: 1, y: 1, z: 1}
  m_ConstrainProportionsScale: 0
  m_Children: []
  m_Father: {fileID: 0}
  m_RootOrder: 0
  m_LocalEulerAnglesHint: {x: 0, y: 0, z: 0}
--- !u!114 &3488748353151409375
MonoBehaviour:
  m_ObjectHideFlags: 0
  m_CorrespondingSourceObject: {fileID: 0}
  m_PrefabInstance: {fileID: 0}
  m_PrefabAsset: {fileID: 0}
  m_GameObject: {fileID: 2516516016907587661}
  m_Enabled: 1
  m_EditorHideFlags: 0
  m_Script: {fileID: 11500000, guid: edcebf8e56841bd42bc9faeab64fdda9, type: 3}
  m_Name: 
  m_EditorClassIdentifier: 
  fly: {fileID: 1155328968453612704, guid: bb3613563cda2614ba8306fe3830a44f, type: 3}
  target: {fileID: 0}
  num_flys: 3
  fly_velocity: 1.3
  spawn1_size: 3
  spawn2_size: 5
  spawn3_size: 8
  between_spawn_wait_time: 10
  spawn_initial: 1
  initial_wait_time: 10
  done_waiting: 0
  spawn_cooldown: 1
  num_killed: 0
--- !u!114 &3488748353151409374
MonoBehaviour:
  m_ObjectHideFlags: 0
  m_CorrespondingSourceObject: {fileID: 0}
  m_PrefabInstance: {fileID: 0}
  m_PrefabAsset: {fileID: 0}
  m_GameObject: {fileID: 2516516016907587661}
  m_Enabled: 1
  m_EditorHideFlags: 0
  m_Script: {fileID: 11500000, guid: 3a98edb3836b3d545bc231da31aaa638, type: 3}
  m_Name: 
  m_EditorClassIdentifier: 
  attack_cooldown: 1.5
